-----BEGIN PGP PUBLIC KEY BLOCK-----
Comment: This is a revocation certificate

iGAEIBECACAWIQRR5fGEErwNQ8nevZPDzAoGOEHHpwUCWYCmxwIdAgAKCRDDzAoG
OEHHp+nYAJwM095Qv9qxaMfqx8xSLD5eKeExgQCeNA5z7zZZcgtUTTqW/o4baX6D
X8E=
=vVlH
-----END PGP PUBLIC KEY BLOCK-----
